TileDB and (R)MariaDB Examples
…
Note that this R session uses TileDB only via the MyTile plugin which is activated implicitly via the ‘table location’ (here /tmp/penguinsraw) of the test database enabling plugins.

Also note that the query is still ‘lazy’: only column names and the first ten observations have been retrieved, and the total size is still unknown as indicated by lazy query [?? x 2]. Adding a collect() verb materialized the full subset.

> tbl(con, "/tmp/penguinsraw")  %>%
+     dplyr::select(contains("Length")) %>%
+     collect()
# A tibble: 344 x 2
   `Culmen Length (mm)` `Flipper Length (mm)`
                  <dbl>                 <dbl>
 1                 39.1                   181
 2                 39.5                   186
 3                 40.3                   195
 4                 NA                      NA
 5                 36.7                   193
 6                 39.3                   190
 7                 38.9                   181
 8                 39.2                   195
 9                 34.1                   193
10                 42                     190
# ... with 334 more rows
…
